# Fdb version 3
["pdflatex"] 1533946063 "/home/sromero/Documents/sergio/personal/USA/Repositorio/appForTheBlind/Documentación/Plantillas/latexTemplate/.TesisMSc.tex.swp" ".TesisMSc.tex.pdf" ".TesisMSc.tex" 1533946063
  ".TesisMSc.tex.aux" 1533861290 8 a94a2480d3289e625eea47cd1b285758 ""
  ".TesisMSc.tex.swp" 1533945374 931 f0d84db31dcbc757606c8008ed2a397e ""
  "/etc/texmf/web2c/texmf.cnf" 1497361437 33773 fa5cb09265807b095f2f1e0834c2617c ""
  "/home/sromero/Documents/sergio/personal/USA/Repositorio/appForTheBlind/Documentación/Plantillas/latexTemplate/.TesisMSc.tex.swp" 1533945374 931 f0d84db31dcbc757606c8008ed2a397e ""
  "/usr/share/texmf/fonts/map/fontname/texfonts.map" 1480098670 3287 e6b82fe08f5336d4d5ebc73fb1152e87 ""
  "/usr/share/texmf/fonts/tfm/public/cm/cmr10.tfm" 1480098701 1296 45809c5a464d5f32c8f98ba97c1bb47f ""
  "/usr/share/texmf/tex/generic/babel-spanish/spanish.ldf" 1480098812 26223 0286ca123141cff8dd4956c4576d2ef4 ""
  "/usr/share/texmf/tex/generic/babel/babel.def" 1495227874 56906 5fe966833cc01ad71361044f6df6de8f ""
  "/usr/share/texmf/tex/generic/babel/babel.sty" 1495227874 15289 de2791ae2b2b7f83883060d1307dfea0 ""
  "/usr/share/texmf/tex/generic/oberdiek/infwarerr.sty" 1480098815 8253 473e0e41f9adadb1977e8631b8f72ea6 ""
  "/usr/share/texmf/tex/generic/oberdiek/ltxcmds.sty" 1480098815 18425 5b3c0c59d76fac78978b5558e83c1f36 ""
  "/usr/share/texmf/tex/latex/amsmath/amsbsy.sty" 1480098820 2210 5c54ab129b848a5071554186d0168766 ""
  "/usr/share/texmf/tex/latex/amsmath/amscd.sty" 1492297155 5308 f89f20c42255849b5c46f9d3a0d4d1f5 ""
  "/usr/share/texmf/tex/latex/amsmath/amsgen.sty" 1480098820 4160 c115536cf8d4ff25aa8c1c9bc4ecb79a ""
  "/usr/share/texmf/tex/latex/amsmath/amsmath.sty" 1485129665 84329 81aa65c5042562f79cb421feff9b8bdc ""
  "/usr/share/texmf/tex/latex/amsmath/amsopn.sty" 1480098820 4115 318a66090112f3aa3f415aeb6fe8540f ""
  "/usr/share/texmf/tex/latex/amsmath/amstext.sty" 1480098820 2431 fe3078ec12fc30287f568596f8e0b948 ""
  "/usr/share/texmf/tex/latex/base/ifthen.sty" 1480098821 5159 a08c9bbd48fc492f15b22e458bef961f ""
  "/usr/share/texmf/tex/latex/base/inputenc.sty" 1480098821 4732 d63eda807ac82cca2ca8488efd31a966 ""
  "/usr/share/texmf/tex/latex/base/omsenc.dfu" 1487721667 2004 ac51aeac484f08c01026120d62677eca ""
  "/usr/share/texmf/tex/latex/base/ot1enc.dfu" 1487721667 3181 1cb3e9ad01f4a01127b2ffd821bfeec7 ""
  "/usr/share/texmf/tex/latex/base/report.cls" 1480098821 22880 e7be6f7dd8c05d5108bf3a7d8cabe59a ""
  "/usr/share/texmf/tex/latex/base/size11.clo" 1480098821 8308 f91506bb4df6d8527331f7bbeaf0e63c ""
  "/usr/share/texmf/tex/latex/base/t1enc.dfu" 1487721667 11255 9d97362866549d3d3c994b5f28d1b9b5 ""
  "/usr/share/texmf/tex/latex/base/textcomp.sty" 1492297155 16154 f2c73e20ca771d534a8516c62c6b0eae ""
  "/usr/share/texmf/tex/latex/base/ts1enc.def" 1480098821 7767 aa88823823f5e767d79ea1166ab1ae74 ""
  "/usr/share/texmf/tex/latex/base/ts1enc.dfu" 1487721667 4919 76510afd60e8282294f944c2f9f5103b ""
  "/usr/share/texmf/tex/latex/base/utf8.def" 1487721667 7784 325a2a09984cb5c4ff230f9867145ad3 ""
  "/usr/share/texmf/tex/latex/eepic/eepic.sty" 1480098827 17662 c85d6c04287ee4592a15f6d02221d58f ""
  "/usr/share/texmf/tex/latex/eepic/epic.sty" 1480098827 25873 0e813d2f6e266780f0cedef5eb5e2525 ""
  "/usr/share/texmf/tex/latex/fancyhdr/fancyhdr.sty" 1496704472 10662 e3591e6a9ad10fb7fa5dc9c4100ca4d1 ""
  "/usr/share/texmf/tex/latex/graphics-cfg/graphics.cfg" 1480098830 1224 978390e9c2234eab29404bc21b268d1e ""
  "/usr/share/texmf/tex/latex/graphics-def/pdftex.def" 1485129666 58250 3792a9d2d1d664ee8c742498e295b051 ""
  "/usr/share/texmf/tex/latex/graphics/epsfig.sty" 1480098830 3388 93cb6d9fa64f9566276657fd15254187 ""
  "/usr/share/texmf/tex/latex/graphics/graphics.sty" 1492297155 14603 b288c52bd5d46d593af31dbc7e548236 ""
  "/usr/share/texmf/tex/latex/graphics/graphicx.sty" 1480098830 8125 557ab9f1bfa80d369fb45a914aa8a3b4 ""
  "/usr/share/texmf/tex/latex/graphics/keyval.sty" 1480098830 2594 d18d5e19aa8239cf867fa670c556d2e9 ""
  "/usr/share/texmf/tex/latex/graphics/lscape.sty" 1480098830 1757 94e21888eaf2391b7bbc441045c70c12 ""
  "/usr/share/texmf/tex/latex/graphics/rotating.sty" 1485129666 6969 f1843f5f0545182bf419df38f75e3930 ""
  "/usr/share/texmf/tex/latex/graphics/trig.sty" 1480098830 3980 0a268fbfda01e381fa95821ab13b6aee ""
  "/usr/share/texmf/tex/latex/subfigure/subfigure.cfg" 1480098839 2062 a0e7d66e09e508f51289a656aec06ed2 ""
  "/usr/share/texmf/tex/latex/subfigure/subfigure.sty" 1480098839 15188 91281c7ddbccfa54a8e0c3b56ab5aa72 ""
  "/usr/share/texmf/tex/latex/tools/array.sty" 1485129666 12396 d41f82b039f900e95f351e54ae740f31 ""
  "/usr/share/texmf/tex/latex/tools/longtable.sty" 1480098841 12083 80916157594a8e4354985aaefae4f367 ""
  "/usr/share/texmf/tex/latex/tools/tabularx.sty" 1480098841 7141 64e8a94c3d083215654cd9a5b9dcc136 ""
  "/usr/share/texmf/tex/latex/url/url.sty" 1480098842 12796 8edb7d69a20b857904dd0ea757c14ec9 ""
  "/usr/share/texmf/web2c/texmf.cnf" 1497361437 33773 fa5cb09265807b095f2f1e0834c2617c ""
  "/var/lib/texmf/web2c/pdftex/pdflatex.fmt" 1532017396 3597788 84e181429fef019570c13c0588093e02 ""
  "Befehle.sty" 1533155478 2263 b0e2bc144b1da1b3bb4f41895c2ebb13 ""
  "EncabezadoTesisMSc.tex" 1533940369 2224 1648a25b7a33a35d9e1834b52c621879 ""
  "here.sty" 1533570044 1992 54bcaebdb122728290940962d8c64b32 ""
  "threeparttable.sty" 1533570016 13506 a4e71a27db1a69b6fabada5beebf0844 ""
  (generated)
  ".TesisMSc.tex.log"
  ".TesisMSc.tex.pdf"
