{
  "project_info": {
    "project_number": "1087475786663",
    "firebase_url": "https://dev-guild-151307.firebaseio.com",
    "project_id": "dev-guild-151307",
    "storage_bucket": "dev-guild-151307.appspot.com"
  },
  "client": [
    {
      "client_info": {
        "mobilesdk_app_id": "1:1087475786663:android:28e5dadd50b12bff",
        "android_client_info": {
          "package_name": "com.usa.imuRecorder"
        }
      },
      "oauth_client": [
        {
          "client_id": "1087475786663-6bpos5ac4rfcdtnlmvl6viut7vcu8b33.apps.googleusercontent.com",
          "client_type": 3
        }
      ],
      "api_key": [
        {
          "current_key": "AIzaSyCq9HGfs7ifuBnnd2w57zCqyI8KiaIQf6g"
        }
      ],
      "services": {
        "analytics_service": {
          "status": 1
        },
        "appinvite_service": {
          "status": 1,
          "other_platform_oauth_client": []
        },
        "ads_service": {
          "status": 2
        }
      }
    }
  ],
  "configuration_version": "1"
}